{
    "family": "prod-order-service",
    "taskRoleArn": "arn:aws:iam::729713917879:role/ecsTaskExecutionRole",
    "executionRoleArn": "arn:aws:iam::729713917879:role/ecsTaskExecutionRole",
    "networkMode": "awsvpc",
    "containerDefinitions": [
        {
            "name": "prod-order-service",
            "image": "729713917879.dkr.ecr.ap-southeast-1.amazonaws.com/prod-order-service",
            "portMappings": [
                {
                    "containerPort": 9001,
                    "hostPort": 9001,
                    "protocol": "tcp"
                }
            ],
            "essential": true,
            "command": [
                ""
            ],
            "environment": [
                {
                    "name": "DB_HOST",
                    "value": "prod-devops-mysql.c5ahc4ljwqcp.ap-southeast-1.rds.amazonaws.com"
                },
                {
                    "name": "DB_USERNAME",
                    "value": "devopsakawork"
                },
                {
                    "name": "DB_PASSWORD",
                    "value": "akawork12345"
                },
                {
                    "name": "PRODUCT_ENDPOINT",
                    "value": "http://dev-product-service.local:9002/api/v1"
                }
            ],
            "logConfiguration": {
                "logDriver": "awslogs",
                "options": {
                    "awslogs-group": "/ecs/prod-order-service",
                    "awslogs-region": "ap-southeast-1",
                    "awslogs-stream-prefix": "ecs"
                }
            }
        }
    ],
    "cpu": "1024",
    "memory": "2048"
}