{
    "family": "dev-frontend-service",
    "taskRoleArn": "arn:aws:iam::729713917879:role/ecsTaskExecutionRole",
    "executionRoleArn": "arn:aws:iam::729713917879:role/ecsTaskExecutionRole",
    "networkMode": "awsvpc",
    "containerDefinitions": [
        {
            "name": "dev-frontend-service",
            "image": "729713917879.dkr.ecr.ap-southeast-1.amazonaws.com/dev-frontend-service",
            "portMappings": [
                {
                    "containerPort": 80,
                    "hostPort": 80,
                    "protocol": "tcp"
                }
            ],
            "logConfiguration": {
                "logDriver": "awslogs",
                "options": {
                    "awslogs-group": "/ecs/dev-frontend-service",
                    "awslogs-region": "ap-southeast-1",
                    "awslogs-stream-prefix": "ecs"
                }
            }
        }
    ],
    "cpu": "1024",
    "memory": "2048"
}