{ 
    "family": "cloud-test-demo-frontend-service", 
    "taskRoleArn": "arn:aws:iam::729713917879:role/ECSTASKS-cloud-test-demo-taskexecution-role-us-east-2", 
    "executionRoleArn": "arn:aws:iam::729713917879:role/ECSTASKS-cloud-test-demo-taskexecution-role-us-east-2", 
    "networkMode": "awsvpc", 
    "containerDefinitions": [ 
        { 
            "name": "cloud-test-demo-frontend-service", 
            "image": "729713917879.dkr.ecr.us-east-2.amazonaws.com/cloud-master-demo-frontend-service", 
            "portMappings": [ 
                { 
                    "containerPort": 80, 
                    "hostPort": 80, 
                    "protocol": "tcp" 
                } 
            ], 
            "essential": true,
            
            "logConfiguration": { 
                "logDriver": "awslogs",
                "options": { 
                    "awslogs-group": "/aws/ecs/cloud-test-demo-frontend-service", 
                    "awslogs-region": "us-east-2", 
                    "awslogs-stream-prefix": "ecs" 
                } 
            } 
        } 
    ],
	"requiresCompatibilities": [
		"FARGATE"
	],
    "cpu": "1024", 
    "memory": "2048" 
}